<?xml version="1.0" encoding="utf-8"?>
<!-- Generator: Adobe Illustrator 22.1.0, SVG Export Plug-In . SVG Version: 6.00 Build 0)  -->
<svg version="1.1" xmlns="http://www.w3.org/2000/svg" xmlns:xlink="http://www.w3.org/1999/xlink" x="0px" y="0px"
	 viewBox="0 0 24 24" style="enable-background:new 0 0 24 24;" xml:space="preserve">
<path d="M16.1,7.5L10.4,13l-2.4-2.3c-0.7-0.7-1.8-0.7-2.4,0c-0.7,0.7-0.7,1.7,0,2.3l3.6,3.5c0.3,0.3,0.7,0.5,1.2,0.5
	c0.5,0,0.9-0.2,1.2-0.5l6.9-6.7c0.7-0.7,0.7-1.7,0-2.3C17.8,6.8,16.7,6.8,16.1,7.5L16.1,7.5z"/>
</svg>
