<?xml version="1.0" encoding="utf-8"?>
<!-- Generator: Adobe Illustrator 22.1.0, SVG Export Plug-In . SVG Version: 6.00 Build 0)  -->
<svg version="1.1" xmlns="http://www.w3.org/2000/svg" xmlns:xlink="http://www.w3.org/1999/xlink" x="0px" y="0px"
	 viewBox="0 0 24 24" style="enable-background:new 0 0 24 24;" xml:space="preserve">
<path d="M22,17.8c0,0.3-0.1,0.6-0.3,0.8l-2.8,2.8c-0.4,0.4-0.9,0.6-1.5,0.6c-1.2-0.1-2.4-0.3-3.5-0.8c-0.9-0.4-1.9-0.9-3-1.6
	s-2.3-1.7-3.5-3c-0.9-0.9-1.7-1.8-2.5-2.8c-0.6-0.8-1.1-1.6-1.6-2.5c-0.6-1.1-1-2.4-1.3-3.6C2,7.2,2,6.7,2,6.2
	c0.1-0.4,0.3-0.8,0.5-1.1l2.8-2.8C5.6,2.1,5.8,2,6.1,2c0.2,0,0.3,0.1,0.5,0.2c0.1,0.1,0.3,0.2,0.4,0.4l2.3,4.3
	c0.1,0.2,0.2,0.5,0.1,0.7c0,0.3-0.2,0.5-0.4,0.7l-1,1c0,0-0.1,0.1-0.1,0.1c0,0.1,0,0.1,0,0.2c0.1,0.3,0.2,0.6,0.4,1
	C8.3,11,8.6,11.4,9,11.9c0.4,0.5,0.9,1.1,1.5,1.7c0.6,0.7,1.2,1.2,1.7,1.5c0.5,0.4,0.9,0.6,1.2,0.8c0.3,0.2,0.6,0.3,0.8,0.3l0.3,0.1
	c0,0,0.1,0,0.1,0l0.1-0.1l1.2-1.2c0.3-0.2,0.5-0.3,0.9-0.3c0.2,0,0.4,0,0.6,0.1h0l4.1,2.4C21.8,17.3,21.9,17.5,22,17.8L22,17.8z"/>
</svg>
